﻿{
    "dataValues": [
      {
        "level": 1,
        "value": 1
      },
      {
        "level": 2,
        "value": 2
      },
      {
        "level": 3,
        "value": 3
      },
      {
        "level": 4,
        "value": 4
      },
      {
        "level": 5,
        "value": 5
      },
      {
        "level": 6,
        "value": 6
      },
      {
        "level": 7,
        "value": 7
      },
      {
        "level": 8,
        "value": 8
      },
      {
        "level": 9,
        "value": 9
      },
      {
        "level": 10,
        "value": 10
      }
    ]
  }